<?xml version="1.0" encoding="UTF-8"?>
<svg width="885px" height="495px" viewBox="0 0 885 495" version="1.1" xmlns="http://www.w3.org/2000/svg" xmlns:xlink="http://www.w3.org/1999/xlink">
    <!-- Generator: Sketch 53 (72520) - https://sketchapp.com -->
    <title>security-visibility</title>
    <desc>Created with Sketch.</desc>
    <defs>
        <linearGradient x1="0%" y1="-123.705882%" x2="100%" y2="-123.705882%" id="linearGradient-visibility-1">
            <stop stop-color="#272359" stop-opacity="0" offset="8%"></stop>
            <stop stop-color="#272359" stop-opacity="0.6" offset="100%"></stop>
        </linearGradient>
        <linearGradient x1="0%" y1="-740.917108%" x2="100%" y2="-740.917108%" id="linearGradient-visibility-2"></linearGradient>
        <linearGradient x1="0%" y1="-494.294118%" x2="100%" y2="-494.294118%" id="linearGradient-visibility-3">
            <stop stop-color="#3F3177" stop-opacity="0" offset="8%"></stop>
            <stop stop-color="#3F3177" stop-opacity="0.6" offset="100%"></stop>
        </linearGradient>
        <linearGradient x1="0%" y1="-1235.47059%" x2="100%" y2="-1235.47059%" id="linearGradient-visibility-4">
            <stop stop-color="#6262CC" stop-opacity="0" offset="8%"></stop>
            <stop stop-color="#6262CC" stop-opacity="0.6" offset="100%"></stop>
        </linearGradient>
        <linearGradient x1="0%" y1="-984.759672%" x2="100%" y2="-984.759672%" id="linearGradient-visibility-5">
            <stop stop-color="#9795F9" stop-opacity="0" offset="8%"></stop>
            <stop stop-color="#9795F9" stop-opacity="0.5" offset="100%"></stop>
        </linearGradient>
        <linearGradient x1="0%" y1="0%" x2="100%" y2="0%" id="linearGradient-visibility-6"></linearGradient>
    </defs>
    <g id="Page-1" stroke="none" stroke-width="1" fill="none" fill-rule="evenodd">
        <g id="security-visibility" transform="translate(-15.000000, 0.000000)" fill-rule="nonzero">
            <path d="M446.326531,115.769388 L473.877551,115.769388 C474.891429,115.769388 475.714286,116.592245 475.714286,117.606122 L475.714286,145.157143 C475.714286,146.17102 474.891429,146.993878 473.877551,146.993878 L446.326531,146.993878 C445.312653,146.993878 444.489796,146.17102 444.489796,145.157143 L444.489796,117.606122 C444.489796,116.592245 445.312653,115.769388 446.326531,115.769388" id="Path" fill="#272359"></path>
            <path d="M512.44898,108.422449 L484.897959,108.422449 C483.884082,108.422449 483.061224,107.599592 483.061224,106.585714 L483.061224,79.0346939 C483.061224,78.0208163 483.884082,77.1979592 484.897959,77.1979592 L512.44898,77.1979592 C513.462857,77.1979592 514.285714,78.0208163 514.285714,79.0346939 L514.285714,106.585714 C514.285714,107.601429 513.462857,108.422449 512.44898,108.422449" id="Path" fill="#6262CC"></path>
            <path d="M512.44898,146.993878 L484.897959,146.993878 C483.884082,146.993878 483.061224,146.17102 483.061224,145.157143 L483.061224,117.606122 C483.061224,116.592245 483.884082,115.769388 484.897959,115.769388 L512.44898,115.769388 C513.462857,115.769388 514.285714,116.592245 514.285714,117.606122 L514.285714,145.157143 C514.285714,146.172857 513.462857,146.993878 512.44898,146.993878" id="Path" fill="#9795F9"></path>
            <path d="M551.020408,108.422449 L523.469388,108.422449 C522.45551,108.422449 521.632653,107.599592 521.632653,106.585714 L521.632653,79.0346939 C521.632653,78.0208163 522.45551,77.1979592 523.469388,77.1979592 L551.020408,77.1979592 C552.034286,77.1979592 552.857143,78.0208163 552.857143,79.0346939 L552.857143,106.585714 C552.857143,107.601429 552.034286,108.422449 551.020408,108.422449" id="Path" fill="#9795F9"></path>
            <path d="M551.020408,69.8510204 L523.469388,69.8510204 C522.45551,69.8510204 521.632653,69.0281633 521.632653,68.0142857 L521.632653,40.4632653 C521.632653,39.4493878 522.45551,38.6265306 523.469388,38.6265306 L551.020408,38.6265306 C552.034286,38.6265306 552.857143,39.4493878 552.857143,40.4632653 L552.857143,68.0142857 C552.857143,69.03 552.034286,69.8510204 551.020408,69.8510204" id="Path" fill="#272359"></path>
            <path d="M551.020408,146.993878 L523.469388,146.993878 C522.45551,146.993878 521.632653,146.17102 521.632653,145.157143 L521.632653,117.606122 C521.632653,116.592245 522.45551,115.769388 523.469388,115.769388 L551.020408,115.769388 C552.034286,115.769388 552.857143,116.592245 552.857143,117.606122 L552.857143,145.157143 C552.857143,146.172857 552.034286,146.993878 551.020408,146.993878" id="Path" fill="#E4E4E4"></path>
            <path d="M551.020408,31.2795918 L523.469388,31.2795918 C522.45551,31.2795918 521.632653,30.4567347 521.632653,29.4428571 L521.632653,1.89183673 C521.632653,0.877959184 522.45551,0.0551020408 523.469388,0.0551020408 L551.020408,0.0551020408 C552.034286,0.0551020408 552.857143,0.877959184 552.857143,1.89183673 L552.857143,29.4428571 C552.857143,30.4585714 552.034286,31.2795918 551.020408,31.2795918" id="Path" fill="#6262CC"></path>
            <path d="M589.591837,108.422449 L562.040816,108.422449 C561.026939,108.422449 560.204082,107.599592 560.204082,106.585714 L560.204082,79.0346939 C560.204082,78.0208163 561.026939,77.1979592 562.040816,77.1979592 L589.591837,77.1979592 C590.605714,77.1979592 591.428571,78.0208163 591.428571,79.0346939 L591.428571,106.585714 C591.428571,107.601429 590.605714,108.422449 589.591837,108.422449" id="Path" fill="#272359"></path>
            <path d="M589.591837,69.8510204 L562.040816,69.8510204 C561.026939,69.8510204 560.204082,69.0281633 560.204082,68.0142857 L560.204082,40.4632653 C560.204082,39.4493878 561.026939,38.6265306 562.040816,38.6265306 L589.591837,38.6265306 C590.605714,38.6265306 591.428571,39.4493878 591.428571,40.4632653 L591.428571,68.0142857 C591.428571,69.03 590.605714,69.8510204 589.591837,69.8510204" id="Path" fill="#3F3177"></path>
            <path d="M589.591837,146.993878 L562.040816,146.993878 C561.026939,146.993878 560.204082,146.17102 560.204082,145.157143 L560.204082,117.606122 C560.204082,116.592245 561.026939,115.769388 562.040816,115.769388 L589.591837,115.769388 C590.605714,115.769388 591.428571,116.592245 591.428571,117.606122 L591.428571,145.157143 C591.428571,146.172857 590.605714,146.993878 589.591837,146.993878" id="Path" fill="#6262CC"></path>
            <path d="M589.591837,31.2795918 L562.040816,31.2795918 C561.026939,31.2795918 560.204082,30.4567347 560.204082,29.4428571 L560.204082,1.89183673 C560.204082,0.877959184 561.026939,0.0551020408 562.040816,0.0551020408 L589.591837,0.0551020408 C590.605714,0.0551020408 591.428571,0.877959184 591.428571,1.89183673 L591.428571,29.4428571 C591.428571,30.4585714 590.605714,31.2795918 589.591837,31.2795918" id="Path" fill="#9795F9"></path>
            <path d="M628.163265,108.422449 L600.612245,108.422449 C599.598367,108.422449 598.77551,107.599592 598.77551,106.585714 L598.77551,79.0346939 C598.77551,78.0208163 599.598367,77.1979592 600.612245,77.1979592 L628.163265,77.1979592 C629.177143,77.1979592 630,78.0208163 630,79.0346939 L630,106.585714 C630,107.601429 629.177143,108.422449 628.163265,108.422449" id="Path" fill="#272359"></path>
            <path d="M628.163265,69.8510204 L600.612245,69.8510204 C599.598367,69.8510204 598.77551,69.0281633 598.77551,68.0142857 L598.77551,40.4632653 C598.77551,39.4493878 599.598367,38.6265306 600.612245,38.6265306 L628.163265,38.6265306 C629.177143,38.6265306 630,39.4493878 630,40.4632653 L630,68.0142857 C630,69.03 629.177143,69.8510204 628.163265,69.8510204" id="Path" fill="#6262CC"></path>
            <path d="M628.163265,146.993878 L600.612245,146.993878 C599.598367,146.993878 598.77551,146.17102 598.77551,145.157143 L598.77551,117.606122 C598.77551,116.592245 599.598367,115.769388 600.612245,115.769388 L628.163265,115.769388 C629.177143,115.769388 630,116.592245 630,117.606122 L630,145.157143 C630,146.172857 629.177143,146.993878 628.163265,146.993878" id="Path" fill="#9795F9"></path>
            <path d="M628.163265,31.2795918 L600.612245,31.2795918 C599.598367,31.2795918 598.77551,30.4567347 598.77551,29.4428571 L598.77551,1.89183673 C598.77551,0.877959184 599.598367,0.0551020408 600.612245,0.0551020408 L628.163265,0.0551020408 C629.177143,0.0551020408 630,0.877959184 630,1.89183673 L630,29.4428571 C630,30.4585714 629.177143,31.2795918 628.163265,31.2795918" id="Path" fill="#3F3177"></path>
            <path d="M666.734694,108.422449 L639.183673,108.422449 C638.169796,108.422449 637.346939,107.599592 637.346939,106.585714 L637.346939,79.0346939 C637.346939,78.0208163 638.169796,77.1979592 639.183673,77.1979592 L666.734694,77.1979592 C667.748571,77.1979592 668.571429,78.0208163 668.571429,79.0346939 L668.571429,106.585714 C668.571429,107.601429 667.748571,108.422449 666.734694,108.422449" id="Path" fill="#3F3177"></path>
            <path d="M666.734694,69.8510204 L639.183673,69.8510204 C638.169796,69.8510204 637.346939,69.0281633 637.346939,68.0142857 L637.346939,40.4632653 C637.346939,39.4493878 638.169796,38.6265306 639.183673,38.6265306 L666.734694,38.6265306 C667.748571,38.6265306 668.571429,39.4493878 668.571429,40.4632653 L668.571429,68.0142857 C668.571429,69.03 667.748571,69.8510204 666.734694,69.8510204" id="Path" fill="#9795F9"></path>
            <path d="M666.734694,146.993878 L639.183673,146.993878 C638.169796,146.993878 637.346939,146.17102 637.346939,145.157143 L637.346939,117.606122 C637.346939,116.592245 638.169796,115.769388 639.183673,115.769388 L666.734694,115.769388 C667.748571,115.769388 668.571429,116.592245 668.571429,117.606122 L668.571429,145.157143 C668.571429,146.172857 667.748571,146.993878 666.734694,146.993878" id="Path" fill="#3F3177"></path>
            <path d="M666.734694,31.2795918 L639.183673,31.2795918 C638.169796,31.2795918 637.346939,30.4567347 637.346939,29.4428571 L637.346939,1.89183673 C637.346939,0.877959184 638.169796,0.0551020408 639.183673,0.0551020408 L666.734694,0.0551020408 C667.748571,0.0551020408 668.571429,0.877959184 668.571429,1.89183673 L668.571429,29.4428571 C668.571429,30.4585714 667.748571,31.2795918 666.734694,31.2795918" id="Path" fill="#6262CC"></path>
            <path d="M705.306122,108.422449 L677.755102,108.422449 C676.741224,108.422449 675.918367,107.599592 675.918367,106.585714 L675.918367,79.0346939 C675.918367,78.0208163 676.741224,77.1979592 677.755102,77.1979592 L705.306122,77.1979592 C706.32,77.1979592 707.142857,78.0208163 707.142857,79.0346939 L707.142857,106.585714 C707.142857,107.601429 706.32,108.422449 705.306122,108.422449" id="Path" fill="#3F3177"></path>
            <path d="M705.306122,69.8510204 L677.755102,69.8510204 C676.741224,69.8510204 675.918367,69.0281633 675.918367,68.0142857 L675.918367,40.4632653 C675.918367,39.4493878 676.741224,38.6265306 677.755102,38.6265306 L705.306122,38.6265306 C706.32,38.6265306 707.142857,39.4493878 707.142857,40.4632653 L707.142857,68.0142857 C707.142857,69.03 706.32,69.8510204 705.306122,69.8510204" id="Path" fill="#272359"></path>
            <path d="M705.306122,146.993878 L677.755102,146.993878 C676.741224,146.993878 675.918367,146.17102 675.918367,145.157143 L675.918367,117.606122 C675.918367,116.592245 676.741224,115.769388 677.755102,115.769388 L705.306122,115.769388 C706.32,115.769388 707.142857,116.592245 707.142857,117.606122 L707.142857,145.157143 C707.142857,146.172857 706.32,146.993878 705.306122,146.993878" id="Path" fill="#272359"></path>
            <path d="M705.306122,31.2795918 L677.755102,31.2795918 C676.741224,31.2795918 675.918367,30.4567347 675.918367,29.4428571 L675.918367,1.89183673 C675.918367,0.877959184 676.741224,0.0551020408 677.755102,0.0551020408 L705.306122,0.0551020408 C706.32,0.0551020408 707.142857,0.877959184 707.142857,1.89183673 L707.142857,29.4428571 C707.142857,30.4585714 706.32,31.2795918 705.306122,31.2795918" id="Path" fill="#E4E4E4"></path>
            <path d="M870.612245,38.6265306 L898.163265,38.6265306 C899.177143,38.6265306 900,39.4493878 900,40.4632653 L900,68.0142857 C900,69.0281633 899.177143,69.8510204 898.163265,69.8510204 L870.612245,69.8510204 C869.598367,69.8510204 868.77551,69.0281633 868.77551,68.0142857 L868.77551,40.4632653 C868.77551,39.4493878 869.598367,38.6265306 870.612245,38.6265306" id="Path" fill="#9795F9"></path>
            <path d="M870.612245,77.1979592 L898.163265,77.1979592 C899.177143,77.1979592 900,78.0208163 900,79.0346939 L900,106.585714 C900,107.599592 899.177143,108.422449 898.163265,108.422449 L870.612245,108.422449 C869.598367,108.422449 868.77551,107.599592 868.77551,106.585714 L868.77551,79.0346939 C868.77551,78.0208163 869.598367,77.1979592 870.612245,77.1979592" id="Path" fill="#272359"></path>
            <path d="M870.612245,0.0569387755 L898.163265,0.0569387755 C899.177143,0.0569387755 900,0.879795918 900,1.89367347 L900,29.4446939 C900,30.4585714 899.177143,31.2814286 898.163265,31.2814286 L870.612245,31.2814286 C869.598367,31.2814286 868.77551,30.4585714 868.77551,29.4446939 L868.77551,1.89367347 C868.77551,0.879795918 869.598367,0.0569387755 870.612245,0.0569387755" id="Path" fill="#E4E4E4"></path>
            <path d="M870.612245,115.769388 L898.163265,115.769388 C899.177143,115.769388 900,116.592245 900,117.606122 L900,145.157143 C900,146.17102 899.177143,146.993878 898.163265,146.993878 L870.612245,146.993878 C869.598367,146.993878 868.77551,146.17102 868.77551,145.157143 L868.77551,117.606122 C868.77551,116.592245 869.598367,115.769388 870.612245,115.769388" id="Path" fill="#6262CC"></path>
            <path d="M832.040816,38.6265306 L859.591837,38.6265306 C860.605714,38.6265306 861.428571,39.4493878 861.428571,40.4632653 L861.428571,68.0142857 C861.428571,69.0281633 860.605714,69.8510204 859.591837,69.8510204 L832.040816,69.8510204 C831.026939,69.8510204 830.204082,69.0281633 830.204082,68.0142857 L830.204082,40.4632653 C830.204082,39.4493878 831.026939,38.6265306 832.040816,38.6265306" id="Path" fill="#272359"></path>
            <path d="M832.040816,77.1979592 L859.591837,77.1979592 C860.605714,77.1979592 861.428571,78.0208163 861.428571,79.0346939 L861.428571,106.585714 C861.428571,107.599592 860.605714,108.422449 859.591837,108.422449 L832.040816,108.422449 C831.026939,108.422449 830.204082,107.599592 830.204082,106.585714 L830.204082,79.0346939 C830.204082,78.0208163 831.026939,77.1979592 832.040816,77.1979592" id="Path" fill="#3F3177"></path>
            <path d="M832.040816,0.0569387755 L859.591837,0.0569387755 C860.605714,0.0569387755 861.428571,0.879795918 861.428571,1.89367347 L861.428571,29.4446939 C861.428571,30.4585714 860.605714,31.2814286 859.591837,31.2814286 L832.040816,31.2814286 C831.026939,31.2814286 830.204082,30.4585714 830.204082,29.4446939 L830.204082,1.89367347 C830.204082,0.879795918 831.026939,0.0569387755 832.040816,0.0569387755" id="Path" fill="#6262CC"></path>
            <path d="M832.040816,115.769388 L859.591837,115.769388 C860.605714,115.769388 861.428571,116.592245 861.428571,117.606122 L861.428571,145.157143 C861.428571,146.17102 860.605714,146.993878 859.591837,146.993878 L832.040816,146.993878 C831.026939,146.993878 830.204082,146.17102 830.204082,145.157143 L830.204082,117.606122 C830.204082,116.592245 831.026939,115.769388 832.040816,115.769388" id="Path" fill="#9795F9"></path>
            <path d="M793.469388,38.6265306 L821.020408,38.6265306 C822.034286,38.6265306 822.857143,39.4493878 822.857143,40.4632653 L822.857143,68.0142857 C822.857143,69.0281633 822.034286,69.8510204 821.020408,69.8510204 L793.469388,69.8510204 C792.45551,69.8510204 791.632653,69.0281633 791.632653,68.0142857 L791.632653,40.4632653 C791.632653,39.4493878 792.45551,38.6265306 793.469388,38.6265306" id="Path" fill="#272359"></path>
            <path d="M793.469388,77.1979592 L821.020408,77.1979592 C822.034286,77.1979592 822.857143,78.0208163 822.857143,79.0346939 L822.857143,106.585714 C822.857143,107.599592 822.034286,108.422449 821.020408,108.422449 L793.469388,108.422449 C792.45551,108.422449 791.632653,107.599592 791.632653,106.585714 L791.632653,79.0346939 C791.632653,78.0208163 792.45551,77.1979592 793.469388,77.1979592" id="Path" fill="#6262CC"></path>
            <path d="M793.469388,0.0569387755 L821.020408,0.0569387755 C822.034286,0.0569387755 822.857143,0.879795918 822.857143,1.89367347 L822.857143,29.4446939 C822.857143,30.4585714 822.034286,31.2814286 821.020408,31.2814286 L793.469388,31.2814286 C792.45551,31.2814286 791.632653,30.4585714 791.632653,29.4446939 L791.632653,1.89367347 C791.632653,0.879795918 792.45551,0.0569387755 793.469388,0.0569387755" id="Path" fill="#9795F9"></path>
            <path d="M793.469388,115.769388 L821.020408,115.769388 C822.034286,115.769388 822.857143,116.592245 822.857143,117.606122 L822.857143,145.157143 C822.857143,146.17102 822.034286,146.993878 821.020408,146.993878 L793.469388,146.993878 C792.45551,146.993878 791.632653,146.17102 791.632653,145.157143 L791.632653,117.606122 C791.632653,116.592245 792.45551,115.769388 793.469388,115.769388" id="Path" fill="#3F3177"></path>
            <path d="M754.897959,38.6265306 L782.44898,38.6265306 C783.462857,38.6265306 784.285714,39.4493878 784.285714,40.4632653 L784.285714,68.0142857 C784.285714,69.0281633 783.462857,69.8510204 782.44898,69.8510204 L754.897959,69.8510204 C753.884082,69.8510204 753.061224,69.0281633 753.061224,68.0142857 L753.061224,40.4632653 C753.061224,39.4493878 753.884082,38.6265306 754.897959,38.6265306" id="Path" fill="#3F3177"></path>
            <path d="M754.897959,77.1979592 L782.44898,77.1979592 C783.462857,77.1979592 784.285714,78.0208163 784.285714,79.0346939 L784.285714,106.585714 C784.285714,107.599592 783.462857,108.422449 782.44898,108.422449 L754.897959,108.422449 C753.884082,108.422449 753.061224,107.599592 753.061224,106.585714 L753.061224,79.0346939 C753.061224,78.0208163 753.884082,77.1979592 754.897959,77.1979592" id="Path" fill="#9795F9"></path>
            <path d="M754.897959,0.0569387755 L782.44898,0.0569387755 C783.462857,0.0569387755 784.285714,0.879795918 784.285714,1.89367347 L784.285714,29.4446939 C784.285714,30.4585714 783.462857,31.2814286 782.44898,31.2814286 L754.897959,31.2814286 C753.884082,31.2814286 753.061224,30.4585714 753.061224,29.4446939 L753.061224,1.89367347 C753.061224,0.879795918 753.884082,0.0569387755 754.897959,0.0569387755" id="Path" fill="#3F3177"></path>
            <path d="M754.897959,115.769388 L782.44898,115.769388 C783.462857,115.769388 784.285714,116.592245 784.285714,117.606122 L784.285714,145.157143 C784.285714,146.17102 783.462857,146.993878 782.44898,146.993878 L754.897959,146.993878 C753.884082,146.993878 753.061224,146.17102 753.061224,145.157143 L753.061224,117.606122 C753.061224,116.592245 753.884082,115.769388 754.897959,115.769388" id="Path" fill="#6262CC"></path>
            <path d="M716.326531,38.6265306 L743.877551,38.6265306 C744.891429,38.6265306 745.714286,39.4493878 745.714286,40.4632653 L745.714286,68.0142857 C745.714286,69.0281633 744.891429,69.8510204 743.877551,69.8510204 L716.326531,69.8510204 C715.312653,69.8510204 714.489796,69.0281633 714.489796,68.0142857 L714.489796,40.4632653 C714.489796,39.4493878 715.312653,38.6265306 716.326531,38.6265306" id="Path" fill="#3F3177"></path>
            <path d="M716.326531,77.1979592 L743.877551,77.1979592 C744.891429,77.1979592 745.714286,78.0208163 745.714286,79.0346939 L745.714286,106.585714 C745.714286,107.599592 744.891429,108.422449 743.877551,108.422449 L716.326531,108.422449 C715.312653,108.422449 714.489796,107.599592 714.489796,106.585714 L714.489796,79.0346939 C714.489796,78.0208163 715.312653,77.1979592 716.326531,77.1979592" id="Path" fill="#272359"></path>
            <path d="M716.326531,0.0569387755 L743.877551,0.0569387755 C744.891429,0.0569387755 745.714286,0.879795918 745.714286,1.89367347 L745.714286,29.4446939 C745.714286,30.4585714 744.891429,31.2814286 743.877551,31.2814286 L716.326531,31.2814286 C715.312653,31.2814286 714.489796,30.4585714 714.489796,29.4446939 L714.489796,1.89367347 C714.489796,0.879795918 715.312653,0.0569387755 716.326531,0.0569387755" id="Path" fill="#272359"></path>
            <path d="M716.326531,115.769388 L743.877551,115.769388 C744.891429,115.769388 745.714286,116.592245 745.714286,117.606122 L745.714286,145.157143 C745.714286,146.17102 744.891429,146.993878 743.877551,146.993878 L716.326531,146.993878 C715.312653,146.993878 714.489796,146.17102 714.489796,145.157143 L714.489796,117.606122 C714.489796,116.592245 715.312653,115.769388 716.326531,115.769388" id="Path" fill="#E4E4E4"></path>
            <path d="M743.877551,192.912245 L716.326531,192.912245 C715.312653,192.912245 714.489796,193.735102 714.489796,194.74898 L714.489796,222.3 C714.489796,223.313878 715.312653,224.136735 716.326531,224.136735 L743.877551,224.136735 C744.891429,224.136735 745.714286,223.313878 745.714286,222.3 L745.714286,194.74898 C745.714286,193.735102 744.891429,192.912245 743.877551,192.912245" id="Path" fill="#6262CC"></path>
            <path d="M743.877551,231.483673 L716.326531,231.483673 C715.312653,231.483673 714.489796,232.306531 714.489796,233.320408 L714.489796,260.871429 C714.489796,261.885306 715.312653,262.708163 716.326531,262.708163 L743.877551,262.708163 C744.891429,262.708163 745.714286,261.885306 745.714286,260.871429 L745.714286,233.320408 C745.714286,232.306531 744.891429,231.483673 743.877551,231.483673" id="Path" fill="#3F3177"></path>
            <path d="M743.877551,154.340816 L716.326531,154.340816 C715.312653,154.340816 714.489796,155.163673 714.489796,156.177551 L714.489796,183.728571 C714.489796,184.742449 715.312653,185.565306 716.326531,185.565306 L743.877551,185.565306 C744.891429,185.565306 745.714286,184.742449 745.714286,183.728571 L745.714286,156.177551 C745.714286,155.163673 744.891429,154.340816 743.877551,154.340816" id="Path" fill="#9795F9"></path>
            <path d="M743.877551,270.055102 L716.326531,270.055102 C715.312653,270.055102 714.489796,270.877959 714.489796,271.891837 L714.489796,299.442857 C714.489796,300.456735 715.312653,301.279592 716.326531,301.279592 L743.877551,301.279592 C744.891429,301.279592 745.714286,300.456735 745.714286,299.442857 L745.714286,271.891837 C745.714286,270.877959 744.891429,270.055102 743.877551,270.055102" id="Path" fill="#272359"></path>
            <path d="M782.44898,192.912245 L754.897959,192.912245 C753.884082,192.912245 753.061224,193.735102 753.061224,194.74898 L753.061224,222.3 C753.061224,223.313878 753.884082,224.136735 754.897959,224.136735 L782.44898,224.136735 C783.462857,224.136735 784.285714,223.313878 784.285714,222.3 L784.285714,194.74898 C784.285714,193.735102 783.462857,192.912245 782.44898,192.912245" id="Path" fill="#9795F9"></path>
            <path d="M782.44898,231.483673 L754.897959,231.483673 C753.884082,231.483673 753.061224,232.306531 753.061224,233.320408 L753.061224,260.871429 C753.061224,261.885306 753.884082,262.708163 754.897959,262.708163 L782.44898,262.708163 C783.462857,262.708163 784.285714,261.885306 784.285714,260.871429 L784.285714,233.320408 C784.285714,232.306531 783.462857,231.483673 782.44898,231.483673" id="Path" fill="#272359"></path>
            <path d="M782.44898,154.340816 L754.897959,154.340816 C753.884082,154.340816 753.061224,155.163673 753.061224,156.177551 L753.061224,183.728571 C753.061224,184.742449 753.884082,185.565306 754.897959,185.565306 L782.44898,185.565306 C783.462857,185.565306 784.285714,184.742449 784.285714,183.728571 L784.285714,156.177551 C784.285714,155.163673 783.462857,154.340816 782.44898,154.340816" id="Path" fill="#E4E4E4"></path>
            <path d="M782.44898,270.055102 L754.897959,270.055102 C753.884082,270.055102 753.061224,270.877959 753.061224,271.891837 L753.061224,299.442857 C753.061224,300.456735 753.884082,301.279592 754.897959,301.279592 L782.44898,301.279592 C783.462857,301.279592 784.285714,300.456735 784.285714,299.442857 L784.285714,271.891837 C784.285714,270.877959 783.462857,270.055102 782.44898,270.055102" id="Path" fill="#6262CC"></path>
            <path d="M821.020408,192.912245 L793.469388,192.912245 C792.45551,192.912245 791.632653,193.735102 791.632653,194.74898 L791.632653,222.3 C791.632653,223.313878 792.45551,224.136735 793.469388,224.136735 L821.020408,224.136735 C822.034286,224.136735 822.857143,223.313878 822.857143,222.3 L822.857143,194.74898 C822.857143,193.735102 822.034286,192.912245 821.020408,192.912245" id="Path" fill="#272359"></path>
            <path d="M821.020408,231.483673 L793.469388,231.483673 C792.45551,231.483673 791.632653,232.306531 791.632653,233.320408 L791.632653,260.871429 C791.632653,261.885306 792.45551,262.708163 793.469388,262.708163 L821.020408,262.708163 C822.034286,262.708163 822.857143,261.885306 822.857143,260.871429 L822.857143,233.320408 C822.857143,232.306531 822.034286,231.483673 821.020408,231.483673" id="Path" fill="#3F3177"></path>
            <path d="M821.020408,154.340816 L793.469388,154.340816 C792.45551,154.340816 791.632653,155.163673 791.632653,156.177551 L791.632653,183.728571 C791.632653,184.742449 792.45551,185.565306 793.469388,185.565306 L821.020408,185.565306 C822.034286,185.565306 822.857143,184.742449 822.857143,183.728571 L822.857143,156.177551 C822.857143,155.163673 822.034286,154.340816 821.020408,154.340816" id="Path" fill="#6262CC"></path>
            <path d="M821.020408,270.055102 L793.469388,270.055102 C792.45551,270.055102 791.632653,270.877959 791.632653,271.891837 L791.632653,299.442857 C791.632653,300.456735 792.45551,301.279592 793.469388,301.279592 L821.020408,301.279592 C822.034286,301.279592 822.857143,300.456735 822.857143,299.442857 L822.857143,271.891837 C822.857143,270.877959 822.034286,270.055102 821.020408,270.055102" id="Path" fill="#9795F9"></path>
            <path d="M859.591837,192.912245 L832.040816,192.912245 C831.026939,192.912245 830.204082,193.735102 830.204082,194.74898 L830.204082,222.3 C830.204082,223.313878 831.026939,224.136735 832.040816,224.136735 L859.591837,224.136735 C860.605714,224.136735 861.428571,223.313878 861.428571,222.3 L861.428571,194.74898 C861.428571,193.735102 860.605714,192.912245 859.591837,192.912245" id="Path" fill="#272359"></path>
            <path d="M859.591837,231.483673 L832.040816,231.483673 C831.026939,231.483673 830.204082,232.306531 830.204082,233.320408 L830.204082,260.871429 C830.204082,261.885306 831.026939,262.708163 832.040816,262.708163 L859.591837,262.708163 C860.605714,262.708163 861.428571,261.885306 861.428571,260.871429 L861.428571,233.320408 C861.428571,232.306531 860.605714,231.483673 859.591837,231.483673" id="Path" fill="#6262CC"></path>
            <path d="M859.591837,154.340816 L832.040816,154.340816 C831.026939,154.340816 830.204082,155.163673 830.204082,156.177551 L830.204082,183.728571 C830.204082,184.742449 831.026939,185.565306 832.040816,185.565306 L859.591837,185.565306 C860.605714,185.565306 861.428571,184.742449 861.428571,183.728571 L861.428571,156.177551 C861.428571,155.163673 860.605714,154.340816 859.591837,154.340816" id="Path" fill="#9795F9"></path>
            <path d="M859.591837,270.055102 L832.040816,270.055102 C831.026939,270.055102 830.204082,270.877959 830.204082,271.891837 L830.204082,299.442857 C830.204082,300.456735 831.026939,301.279592 832.040816,301.279592 L859.591837,301.279592 C860.605714,301.279592 861.428571,300.456735 861.428571,299.442857 L861.428571,271.891837 C861.428571,270.877959 860.605714,270.055102 859.591837,270.055102" id="Path" fill="#3F3177"></path>
            <path d="M898.163265,192.912245 L870.612245,192.912245 C869.598367,192.912245 868.77551,193.735102 868.77551,194.74898 L868.77551,222.3 C868.77551,223.313878 869.598367,224.136735 870.612245,224.136735 L898.163265,224.136735 C899.177143,224.136735 900,223.313878 900,222.3 L900,194.74898 C900,193.735102 899.177143,192.912245 898.163265,192.912245" id="Path" fill="#3F3177"></path>
            <path d="M898.163265,231.483673 L870.612245,231.483673 C869.598367,231.483673 868.77551,232.306531 868.77551,233.320408 L868.77551,260.871429 C868.77551,261.885306 869.598367,262.708163 870.612245,262.708163 L898.163265,262.708163 C899.177143,262.708163 900,261.885306 900,260.871429 L900,233.320408 C900,232.306531 899.177143,231.483673 898.163265,231.483673" id="Path" fill="#9795F9"></path>
            <path d="M898.163265,154.340816 L870.612245,154.340816 C869.598367,154.340816 868.77551,155.163673 868.77551,156.177551 L868.77551,183.728571 C868.77551,184.742449 869.598367,185.565306 870.612245,185.565306 L898.163265,185.565306 C899.177143,185.565306 900,184.742449 900,183.728571 L900,156.177551 C900,155.163673 899.177143,154.340816 898.163265,154.340816" id="Path" fill="#3F3177"></path>
            <path d="M898.163265,270.055102 L870.612245,270.055102 C869.598367,270.055102 868.77551,270.877959 868.77551,271.891837 L868.77551,299.442857 C868.77551,300.456735 869.598367,301.279592 870.612245,301.279592 L898.163265,301.279592 C899.177143,301.279592 900,300.456735 900,299.442857 L900,271.891837 C900,270.877959 899.177143,270.055102 898.163265,270.055102" id="Path" fill="#6262CC"></path>
            <path d="M677.755102,262.708163 L705.306122,262.708163 C706.32,262.708163 707.142857,261.885306 707.142857,260.871429 L707.142857,233.320408 C707.142857,232.306531 706.32,231.483673 705.306122,231.483673 L677.755102,231.483673 C676.741224,231.483673 675.918367,232.306531 675.918367,233.320408 L675.918367,260.871429 C675.918367,261.887143 676.741224,262.708163 677.755102,262.708163" id="Path" fill="#6262CC"></path>
            <path d="M677.755102,224.136735 L705.306122,224.136735 C706.32,224.136735 707.142857,223.313878 707.142857,222.3 L707.142857,194.74898 C707.142857,193.735102 706.32,192.912245 705.306122,192.912245 L677.755102,192.912245 C676.741224,192.912245 675.918367,193.735102 675.918367,194.74898 L675.918367,222.3 C675.918367,223.315714 676.741224,224.136735 677.755102,224.136735" id="Path" fill="#3F3177"></path>
            <path d="M677.755102,301.279592 L705.306122,301.279592 C706.32,301.279592 707.142857,300.456735 707.142857,299.442857 L707.142857,271.891837 C707.142857,270.877959 706.32,270.055102 705.306122,270.055102 L677.755102,270.055102 C676.741224,270.055102 675.918367,270.877959 675.918367,271.891837 L675.918367,299.442857 C675.918367,300.458571 676.741224,301.279592 677.755102,301.279592" id="Path" fill="#9795F9"></path>
            <path d="M677.755102,185.565306 L705.306122,185.565306 C706.32,185.565306 707.142857,184.742449 707.142857,183.728571 L707.142857,156.177551 C707.142857,155.163673 706.32,154.340816 705.306122,154.340816 L677.755102,154.340816 C676.741224,154.340816 675.918367,155.163673 675.918367,156.177551 L675.918367,183.728571 C675.918367,184.744286 676.741224,185.565306 677.755102,185.565306" id="Path" fill="#272359"></path>
            <path d="M639.183673,262.708163 L666.734694,262.708163 C667.748571,262.708163 668.571429,261.885306 668.571429,260.871429 L668.571429,233.320408 C668.571429,232.306531 667.748571,231.483673 666.734694,231.483673 L639.183673,231.483673 C638.169796,231.483673 637.346939,232.306531 637.346939,233.320408 L637.346939,260.871429 C637.346939,261.887143 638.169796,262.708163 639.183673,262.708163" id="Path" fill="#9795F9"></path>
            <path d="M639.183673,224.136735 L666.734694,224.136735 C667.748571,224.136735 668.571429,223.313878 668.571429,222.3 L668.571429,194.74898 C668.571429,193.735102 667.748571,192.912245 666.734694,192.912245 L639.183673,192.912245 C638.169796,192.912245 637.346939,193.735102 637.346939,194.74898 L637.346939,222.3 C637.346939,223.315714 638.169796,224.136735 639.183673,224.136735" id="Path" fill="#272359"></path>
            <path d="M639.183673,301.279592 L666.734694,301.279592 C667.748571,301.279592 668.571429,300.456735 668.571429,299.442857 L668.571429,271.891837 C668.571429,270.877959 667.748571,270.055102 666.734694,270.055102 L639.183673,270.055102 C638.169796,270.055102 637.346939,270.877959 637.346939,271.891837 L637.346939,299.442857 C637.346939,300.458571 638.169796,301.279592 639.183673,301.279592" id="Path" fill="#E4E4E4"></path>
            <path d="M639.183673,185.565306 L666.734694,185.565306 C667.748571,185.565306 668.571429,184.742449 668.571429,183.728571 L668.571429,156.177551 C668.571429,155.163673 667.748571,154.340816 666.734694,154.340816 L639.183673,154.340816 C638.169796,154.340816 637.346939,155.163673 637.346939,156.177551 L637.346939,183.728571 C637.346939,184.744286 638.169796,185.565306 639.183673,185.565306" id="Path" fill="#6262CC"></path>
            <path d="M600.612245,262.708163 L628.163265,262.708163 C629.177143,262.708163 630,261.885306 630,260.871429 L630,233.320408 C630,232.306531 629.177143,231.483673 628.163265,231.483673 L600.612245,231.483673 C599.598367,231.483673 598.77551,232.306531 598.77551,233.320408 L598.77551,260.871429 C598.77551,261.887143 599.598367,262.708163 600.612245,262.708163" id="Path" fill="#272359"></path>
            <path d="M600.612245,224.136735 L628.163265,224.136735 C629.177143,224.136735 630,223.313878 630,222.3 L630,194.74898 C630,193.735102 629.177143,192.912245 628.163265,192.912245 L600.612245,192.912245 C599.598367,192.912245 598.77551,193.735102 598.77551,194.74898 L598.77551,222.3 C598.77551,223.315714 599.598367,224.136735 600.612245,224.136735" id="Path" fill="#3F3177"></path>
            <path d="M600.612245,301.279592 L628.163265,301.279592 C629.177143,301.279592 630,300.456735 630,299.442857 L630,271.891837 C630,270.877959 629.177143,270.055102 628.163265,270.055102 L600.612245,270.055102 C599.598367,270.055102 598.77551,270.877959 598.77551,271.891837 L598.77551,299.442857 C598.77551,300.458571 599.598367,301.279592 600.612245,301.279592" id="Path" fill="#6262CC"></path>
            <path d="M600.612245,185.565306 L628.163265,185.565306 C629.177143,185.565306 630,184.742449 630,183.728571 L630,156.177551 C630,155.163673 629.177143,154.340816 628.163265,154.340816 L600.612245,154.340816 C599.598367,154.340816 598.77551,155.163673 598.77551,156.177551 L598.77551,183.728571 C598.77551,184.744286 599.598367,185.565306 600.612245,185.565306" id="Path" fill="#9795F9"></path>
            <path d="M562.040816,262.708163 L589.591837,262.708163 C590.605714,262.708163 591.428571,261.885306 591.428571,260.871429 L591.428571,233.320408 C591.428571,232.306531 590.605714,231.483673 589.591837,231.483673 L562.040816,231.483673 C561.026939,231.483673 560.204082,232.306531 560.204082,233.320408 L560.204082,260.871429 C560.204082,261.887143 561.026939,262.708163 562.040816,262.708163" id="Path" fill="#272359"></path>
            <path d="M562.040816,224.136735 L589.591837,224.136735 C590.605714,224.136735 591.428571,223.313878 591.428571,222.3 L591.428571,194.74898 C591.428571,193.735102 590.605714,192.912245 589.591837,192.912245 L562.040816,192.912245 C561.026939,192.912245 560.204082,193.735102 560.204082,194.74898 L560.204082,222.3 C560.204082,223.315714 561.026939,224.136735 562.040816,224.136735" id="Path" fill="#6262CC"></path>
            <path d="M562.040816,301.279592 L589.591837,301.279592 C590.605714,301.279592 591.428571,300.456735 591.428571,299.442857 L591.428571,271.891837 C591.428571,270.877959 590.605714,270.055102 589.591837,270.055102 L562.040816,270.055102 C561.026939,270.055102 560.204082,270.877959 560.204082,271.891837 L560.204082,299.442857 C560.204082,300.458571 561.026939,301.279592 562.040816,301.279592" id="Path" fill="#9795F9"></path>
            <path d="M562.040816,185.565306 L589.591837,185.565306 C590.605714,185.565306 591.428571,184.742449 591.428571,183.728571 L591.428571,156.177551 C591.428571,155.163673 590.605714,154.340816 589.591837,154.340816 L562.040816,154.340816 C561.026939,154.340816 560.204082,155.163673 560.204082,156.177551 L560.204082,183.728571 C560.204082,184.744286 561.026939,185.565306 562.040816,185.565306" id="Path" fill="#3F3177"></path>
            <path d="M523.469388,262.708163 L551.020408,262.708163 C552.034286,262.708163 552.857143,261.885306 552.857143,260.871429 L552.857143,233.320408 C552.857143,232.306531 552.034286,231.483673 551.020408,231.483673 L523.469388,231.483673 C522.45551,231.483673 521.632653,232.306531 521.632653,233.320408 L521.632653,260.871429 C521.632653,261.887143 522.45551,262.708163 523.469388,262.708163" id="Path" fill="#3F3177"></path>
            <path d="M523.469388,224.136735 L551.020408,224.136735 C552.034286,224.136735 552.857143,223.313878 552.857143,222.3 L552.857143,194.74898 C552.857143,193.735102 552.034286,192.912245 551.020408,192.912245 L523.469388,192.912245 C522.45551,192.912245 521.632653,193.735102 521.632653,194.74898 L521.632653,222.3 C521.632653,223.315714 522.45551,224.136735 523.469388,224.136735" id="Path" fill="#9795F9"></path>
            <path d="M523.469388,301.279592 L551.020408,301.279592 C552.034286,301.279592 552.857143,300.456735 552.857143,299.442857 L552.857143,271.891837 C552.857143,270.877959 552.034286,270.055102 551.020408,270.055102 L523.469388,270.055102 C522.45551,270.055102 521.632653,270.877959 521.632653,271.891837 L521.632653,299.442857 C521.632653,300.458571 522.45551,301.279592 523.469388,301.279592" id="Path" fill="#3F3177"></path>
            <path d="M523.469388,185.565306 L551.020408,185.565306 C552.034286,185.565306 552.857143,184.742449 552.857143,183.728571 L552.857143,156.177551 C552.857143,155.163673 552.034286,154.340816 551.020408,154.340816 L523.469388,154.340816 C522.45551,154.340816 521.632653,155.163673 521.632653,156.177551 L521.632653,183.728571 C521.632653,184.744286 522.45551,185.565306 523.469388,185.565306" id="Path" fill="#6262CC"></path>
            <path d="M484.897959,262.708163 L512.44898,262.708163 C513.462857,262.708163 514.285714,261.885306 514.285714,260.871429 L514.285714,233.320408 C514.285714,232.306531 513.462857,231.483673 512.44898,231.483673 L484.897959,231.483673 C483.884082,231.483673 483.061224,232.306531 483.061224,233.320408 L483.061224,260.871429 C483.061224,261.887143 483.884082,262.708163 484.897959,262.708163" id="Path" fill="#3F3177"></path>
            <path d="M484.897959,224.136735 L512.44898,224.136735 C513.462857,224.136735 514.285714,223.313878 514.285714,222.3 L514.285714,194.74898 C514.285714,193.735102 513.462857,192.912245 512.44898,192.912245 L484.897959,192.912245 C483.884082,192.912245 483.061224,193.735102 483.061224,194.74898 L483.061224,222.3 C483.061224,223.315714 483.884082,224.136735 484.897959,224.136735" id="Path" fill="#272359"></path>
            <path d="M484.897959,301.279592 L512.44898,301.279592 C513.462857,301.279592 514.285714,300.456735 514.285714,299.442857 L514.285714,271.891837 C514.285714,270.877959 513.462857,270.055102 512.44898,270.055102 L484.897959,270.055102 C483.884082,270.055102 483.061224,270.877959 483.061224,271.891837 L483.061224,299.442857 C483.061224,300.458571 483.884082,301.279592 484.897959,301.279592" id="Path" fill="#272359"></path>
            <path d="M484.897959,185.565306 L512.44898,185.565306 C513.462857,185.565306 514.285714,184.742449 514.285714,183.728571 L514.285714,156.177551 C514.285714,155.163673 513.462857,154.340816 512.44898,154.340816 L484.897959,154.340816 C483.884082,154.340816 483.061224,155.163673 483.061224,156.177551 L483.061224,183.728571 C483.061224,184.744286 483.884082,185.565306 484.897959,185.565306" id="Path" fill="#E4E4E4"></path>
            <path d="M396.734694,231.483673 L369.183673,231.483673 C368.169796,231.483673 367.346939,232.306531 367.346939,233.320408 L367.346939,260.871429 C367.346939,261.885306 368.169796,262.708163 369.183673,262.708163 L396.734694,262.708163 C397.748571,262.708163 398.571429,261.885306 398.571429,260.871429 L398.571429,233.320408 C398.571429,232.306531 397.748571,231.483673 396.734694,231.483673" id="Path" fill="#6262CC"></path>
            <path d="M396.734694,270.055102 L369.183673,270.055102 C368.169796,270.055102 367.346939,270.877959 367.346939,271.891837 L367.346939,299.442857 C367.346939,300.456735 368.169796,301.279592 369.183673,301.279592 L396.734694,301.279592 C397.748571,301.279592 398.571429,300.456735 398.571429,299.442857 L398.571429,271.891837 C398.571429,270.877959 397.748571,270.055102 396.734694,270.055102" id="Path" fill="#3F3177"></path>
            <path d="M435.306122,192.912245 L407.755102,192.912245 C406.741224,192.912245 405.918367,193.735102 405.918367,194.74898 L405.918367,222.3 C405.918367,223.313878 406.741224,224.136735 407.755102,224.136735 L435.306122,224.136735 C436.32,224.136735 437.142857,223.313878 437.142857,222.3 L437.142857,194.74898 C437.142857,193.735102 436.32,192.912245 435.306122,192.912245" id="Path" fill="#3F3177"></path>
            <path d="M435.306122,231.483673 L407.755102,231.483673 C406.741224,231.483673 405.918367,232.306531 405.918367,233.320408 L405.918367,260.871429 C405.918367,261.885306 406.741224,262.708163 407.755102,262.708163 L435.306122,262.708163 C436.32,262.708163 437.142857,261.885306 437.142857,260.871429 L437.142857,233.320408 C437.142857,232.306531 436.32,231.483673 435.306122,231.483673" id="Path" fill="#9795F9"></path>
            <path d="M435.306122,270.055102 L407.755102,270.055102 C406.741224,270.055102 405.918367,270.877959 405.918367,271.891837 L405.918367,299.442857 C405.918367,300.456735 406.741224,301.279592 407.755102,301.279592 L435.306122,301.279592 C436.32,301.279592 437.142857,300.456735 437.142857,299.442857 L437.142857,271.891837 C437.142857,270.877959 436.32,270.055102 435.306122,270.055102" id="Path" fill="#6262CC"></path>
            <path d="M473.877551,192.912245 L446.326531,192.912245 C445.312653,192.912245 444.489796,193.735102 444.489796,194.74898 L444.489796,222.3 C444.489796,223.313878 445.312653,224.136735 446.326531,224.136735 L473.877551,224.136735 C474.891429,224.136735 475.714286,223.313878 475.714286,222.3 L475.714286,194.74898 C475.714286,193.735102 474.891429,192.912245 473.877551,192.912245" id="Path" fill="#3F3177"></path>
            <path d="M473.877551,231.483673 L446.326531,231.483673 C445.312653,231.483673 444.489796,232.306531 444.489796,233.320408 L444.489796,260.871429 C444.489796,261.885306 445.312653,262.708163 446.326531,262.708163 L473.877551,262.708163 C474.891429,262.708163 475.714286,261.885306 475.714286,260.871429 L475.714286,233.320408 C475.714286,232.306531 474.891429,231.483673 473.877551,231.483673" id="Path" fill="#272359"></path>
            <path d="M473.877551,154.340816 L446.326531,154.340816 C445.312653,154.340816 444.489796,155.163673 444.489796,156.177551 L444.489796,183.728571 C444.489796,184.742449 445.312653,185.565306 446.326531,185.565306 L473.877551,185.565306 C474.891429,185.565306 475.714286,184.742449 475.714286,183.728571 L475.714286,156.177551 C475.714286,155.163673 474.891429,154.340816 473.877551,154.340816" id="Path" fill="#272359"></path>
            <path d="M473.877551,270.055102 L446.326531,270.055102 C445.312653,270.055102 444.489796,270.877959 444.489796,271.891837 L444.489796,299.442857 C444.489796,300.456735 445.312653,301.279592 446.326531,301.279592 L473.877551,301.279592 C474.891429,301.279592 475.714286,300.456735 475.714286,299.442857 L475.714286,271.891837 C475.714286,270.877959 474.891429,270.055102 473.877551,270.055102" id="Path" fill="#E4E4E4"></path>
            <path d="M446.326531,347.197959 L473.877551,347.197959 C474.891429,347.197959 475.714286,348.020816 475.714286,349.034694 L475.714286,376.585714 C475.714286,377.599592 474.891429,378.422449 473.877551,378.422449 L446.326531,378.422449 C445.312653,378.422449 444.489796,377.599592 444.489796,376.585714 L444.489796,349.034694 C444.489796,348.020816 445.312653,347.197959 446.326531,347.197959" id="Path" fill="#6262CC"></path>
            <path d="M446.326531,385.769388 L473.877551,385.769388 C474.891429,385.769388 475.714286,386.592245 475.714286,387.606122 L475.714286,415.157143 C475.714286,416.17102 474.891429,416.993878 473.877551,416.993878 L446.326531,416.993878 C445.312653,416.993878 444.489796,416.17102 444.489796,415.157143 L444.489796,387.606122 C444.489796,386.592245 445.312653,385.769388 446.326531,385.769388" id="Path" fill="#3F3177"></path>
            <path d="M446.326531,308.626531 L473.877551,308.626531 C474.891429,308.626531 475.714286,309.449388 475.714286,310.463265 L475.714286,338.014286 C475.714286,339.028163 474.891429,339.85102 473.877551,339.85102 L446.326531,339.85102 C445.312653,339.85102 444.489796,339.028163 444.489796,338.014286 L444.489796,310.463265 C444.489796,309.449388 445.312653,308.626531 446.326531,308.626531" id="Path" fill="#9795F9"></path>
            <path d="M446.326531,424.340816 L473.877551,424.340816 C474.891429,424.340816 475.714286,425.163673 475.714286,426.177551 L475.714286,453.728571 C475.714286,454.742449 474.891429,455.565306 473.877551,455.565306 L446.326531,455.565306 C445.312653,455.565306 444.489796,454.742449 444.489796,453.728571 L444.489796,426.177551 C444.489796,425.163673 445.312653,424.340816 446.326531,424.340816" id="Path" fill="#272359"></path>
            <path d="M407.755102,347.197959 L435.306122,347.197959 C436.32,347.197959 437.142857,348.020816 437.142857,349.034694 L437.142857,376.585714 C437.142857,377.599592 436.32,378.422449 435.306122,378.422449 L407.755102,378.422449 C406.741224,378.422449 405.918367,377.599592 405.918367,376.585714 L405.918367,349.034694 C405.918367,348.020816 406.741224,347.197959 407.755102,347.197959" id="Path" fill="#9795F9"></path>
            <path d="M407.755102,385.769388 L435.306122,385.769388 C436.32,385.769388 437.142857,386.592245 437.142857,387.606122 L437.142857,415.157143 C437.142857,416.17102 436.32,416.993878 435.306122,416.993878 L407.755102,416.993878 C406.741224,416.993878 405.918367,416.17102 405.918367,415.157143 L405.918367,387.606122 C405.918367,386.592245 406.741224,385.769388 407.755102,385.769388" id="Path" fill="#272359"></path>
            <path d="M407.755102,308.626531 L435.306122,308.626531 C436.32,308.626531 437.142857,309.449388 437.142857,310.463265 L437.142857,338.014286 C437.142857,339.028163 436.32,339.85102 435.306122,339.85102 L407.755102,339.85102 C406.741224,339.85102 405.918367,339.028163 405.918367,338.014286 L405.918367,310.463265 C405.918367,309.449388 406.741224,308.626531 407.755102,308.626531" id="Path" fill="#E4E4E4"></path>
            <path d="M407.755102,424.340816 L435.306122,424.340816 C436.32,424.340816 437.142857,425.163673 437.142857,426.177551 L437.142857,453.728571 C437.142857,454.742449 436.32,455.565306 435.306122,455.565306 L407.755102,455.565306 C406.741224,455.565306 405.918367,454.742449 405.918367,453.728571 L405.918367,426.177551 C405.918367,425.163673 406.741224,424.340816 407.755102,424.340816" id="Path" fill="#6262CC"></path>
            <path d="M369.183673,347.197959 L396.734694,347.197959 C397.748571,347.197959 398.571429,348.020816 398.571429,349.034694 L398.571429,376.585714 C398.571429,377.599592 397.748571,378.422449 396.734694,378.422449 L369.183673,378.422449 C368.169796,378.422449 367.346939,377.599592 367.346939,376.585714 L367.346939,349.034694 C367.346939,348.020816 368.169796,347.197959 369.183673,347.197959" id="Path" fill="#272359"></path>
            <path d="M369.183673,385.769388 L396.734694,385.769388 C397.748571,385.769388 398.571429,386.592245 398.571429,387.606122 L398.571429,415.157143 C398.571429,416.17102 397.748571,416.993878 396.734694,416.993878 L369.183673,416.993878 C368.169796,416.993878 367.346939,416.17102 367.346939,415.157143 L367.346939,387.606122 C367.346939,386.592245 368.169796,385.769388 369.183673,385.769388" id="Path" fill="#3F3177"></path>
            <path d="M369.183673,308.626531 L396.734694,308.626531 C397.748571,308.626531 398.571429,309.449388 398.571429,310.463265 L398.571429,338.014286 C398.571429,339.028163 397.748571,339.85102 396.734694,339.85102 L369.183673,339.85102 C368.169796,339.85102 367.346939,339.028163 367.346939,338.014286 L367.346939,310.463265 C367.346939,309.449388 368.169796,308.626531 369.183673,308.626531" id="Path" fill="#6262CC"></path>
            <path d="M369.183673,424.340816 L396.734694,424.340816 C397.748571,424.340816 398.571429,425.163673 398.571429,426.177551 L398.571429,453.728571 C398.571429,454.742449 397.748571,455.565306 396.734694,455.565306 L369.183673,455.565306 C368.169796,455.565306 367.346939,454.742449 367.346939,453.728571 L367.346939,426.177551 C367.346939,425.163673 368.169796,424.340816 369.183673,424.340816" id="Path" fill="#9795F9"></path>
            <path d="M330.612245,347.197959 L358.163265,347.197959 C359.177143,347.197959 360,348.020816 360,349.034694 L360,376.585714 C360,377.599592 359.177143,378.422449 358.163265,378.422449 L330.612245,378.422449 C329.598367,378.422449 328.77551,377.599592 328.77551,376.585714 L328.77551,349.034694 C328.77551,348.020816 329.598367,347.197959 330.612245,347.197959" id="Path" fill="#272359"></path>
            <path d="M330.612245,385.769388 L358.163265,385.769388 C359.177143,385.769388 360,386.592245 360,387.606122 L360,415.157143 C360,416.17102 359.177143,416.993878 358.163265,416.993878 L330.612245,416.993878 C329.598367,416.993878 328.77551,416.17102 328.77551,415.157143 L328.77551,387.606122 C328.77551,386.592245 329.598367,385.769388 330.612245,385.769388" id="Path" fill="#6262CC"></path>
            <path d="M330.612245,308.626531 L358.163265,308.626531 C359.177143,308.626531 360,309.449388 360,310.463265 L360,338.014286 C360,339.028163 359.177143,339.85102 358.163265,339.85102 L330.612245,339.85102 C329.598367,339.85102 328.77551,339.028163 328.77551,338.014286 L328.77551,310.463265 C328.77551,309.449388 329.598367,308.626531 330.612245,308.626531" id="Path" fill="#9795F9"></path>
            <path d="M330.612245,424.340816 L358.163265,424.340816 C359.177143,424.340816 360,425.163673 360,426.177551 L360,453.728571 C360,454.742449 359.177143,455.565306 358.163265,455.565306 L330.612245,455.565306 C329.598367,455.565306 328.77551,454.742449 328.77551,453.728571 L328.77551,426.177551 C328.77551,425.163673 329.598367,424.340816 330.612245,424.340816" id="Path" fill="#3F3177"></path>
            <path d="M292.040816,347.197959 L319.591837,347.197959 C320.605714,347.197959 321.428571,348.020816 321.428571,349.034694 L321.428571,376.585714 C321.428571,377.599592 320.605714,378.422449 319.591837,378.422449 L292.040816,378.422449 C291.026939,378.422449 290.204082,377.599592 290.204082,376.585714 L290.204082,349.034694 C290.204082,348.020816 291.026939,347.197959 292.040816,347.197959" id="Path" fill="#3F3177"></path>
            <path d="M292.040816,385.769388 L319.591837,385.769388 C320.605714,385.769388 321.428571,386.592245 321.428571,387.606122 L321.428571,415.157143 C321.428571,416.17102 320.605714,416.993878 319.591837,416.993878 L292.040816,416.993878 C291.026939,416.993878 290.204082,416.17102 290.204082,415.157143 L290.204082,387.606122 C290.204082,386.592245 291.026939,385.769388 292.040816,385.769388" id="Path" fill="#9795F9"></path>
            <path d="M292.040816,424.340816 L319.591837,424.340816 C320.605714,424.340816 321.428571,425.163673 321.428571,426.177551 L321.428571,453.728571 C321.428571,454.742449 320.605714,455.565306 319.591837,455.565306 L292.040816,455.565306 C291.026939,455.565306 290.204082,454.742449 290.204082,453.728571 L290.204082,426.177551 C290.204082,425.163673 291.026939,424.340816 292.040816,424.340816" id="Path" fill="#6262CC"></path>
            <path d="M253.469388,424.340816 L281.020408,424.340816 C282.034286,424.340816 282.857143,425.163673 282.857143,426.177551 L282.857143,453.728571 C282.857143,454.742449 282.034286,455.565306 281.020408,455.565306 L253.469388,455.565306 C252.45551,455.565306 251.632653,454.742449 251.632653,453.728571 L251.632653,426.177551 C251.632653,425.163673 252.45551,424.340816 253.469388,424.340816" id="Path" fill="#E4E4E4"></path>
            <path d="M512.44898,416.993878 L484.897959,416.993878 C483.884082,416.993878 483.061224,416.17102 483.061224,415.157143 L483.061224,387.606122 C483.061224,386.592245 483.884082,385.769388 484.897959,385.769388 L512.44898,385.769388 C513.462857,385.769388 514.285714,386.592245 514.285714,387.606122 L514.285714,415.157143 C514.285714,416.17102 513.462857,416.993878 512.44898,416.993878" id="Path" fill="#6262CC"></path>
            <path d="M512.44898,378.422449 L484.897959,378.422449 C483.884082,378.422449 483.061224,377.599592 483.061224,376.585714 L483.061224,349.034694 C483.061224,348.020816 483.884082,347.197959 484.897959,347.197959 L512.44898,347.197959 C513.462857,347.197959 514.285714,348.020816 514.285714,349.034694 L514.285714,376.585714 C514.285714,377.599592 513.462857,378.422449 512.44898,378.422449" id="Path" fill="#3F3177"></path>
            <path d="M512.44898,455.565306 L484.897959,455.565306 C483.884082,455.565306 483.061224,454.742449 483.061224,453.728571 L483.061224,426.177551 C483.061224,425.163673 483.884082,424.340816 484.897959,424.340816 L512.44898,424.340816 C513.462857,424.340816 514.285714,425.163673 514.285714,426.177551 L514.285714,453.728571 C514.285714,454.742449 513.462857,455.565306 512.44898,455.565306" id="Path" fill="#9795F9"></path>
            <path d="M512.44898,339.85102 L484.897959,339.85102 C483.884082,339.85102 483.061224,339.028163 483.061224,338.014286 L483.061224,310.463265 C483.061224,309.449388 483.884082,308.626531 484.897959,308.626531 L512.44898,308.626531 C513.462857,308.626531 514.285714,309.449388 514.285714,310.463265 L514.285714,338.014286 C514.285714,339.028163 513.462857,339.85102 512.44898,339.85102" id="Path" fill="#272359"></path>
            <path d="M551.020408,416.993878 L523.469388,416.993878 C522.45551,416.993878 521.632653,416.17102 521.632653,415.157143 L521.632653,387.606122 C521.632653,386.592245 522.45551,385.769388 523.469388,385.769388 L551.020408,385.769388 C552.034286,385.769388 552.857143,386.592245 552.857143,387.606122 L552.857143,415.157143 C552.857143,416.17102 552.034286,416.993878 551.020408,416.993878" id="Path" fill="#9795F9"></path>
            <path d="M551.020408,378.422449 L523.469388,378.422449 C522.45551,378.422449 521.632653,377.599592 521.632653,376.585714 L521.632653,349.034694 C521.632653,348.020816 522.45551,347.197959 523.469388,347.197959 L551.020408,347.197959 C552.034286,347.197959 552.857143,348.020816 552.857143,349.034694 L552.857143,376.585714 C552.857143,377.599592 552.034286,378.422449 551.020408,378.422449" id="Path" fill="#272359"></path>
            <path d="M551.020408,455.565306 L523.469388,455.565306 C522.45551,455.565306 521.632653,454.742449 521.632653,453.728571 L521.632653,426.177551 C521.632653,425.163673 522.45551,424.340816 523.469388,424.340816 L551.020408,424.340816 C552.034286,424.340816 552.857143,425.163673 552.857143,426.177551 L552.857143,453.728571 C552.857143,454.742449 552.034286,455.565306 551.020408,455.565306" id="Path" fill="#E4E4E4"></path>
            <path d="M551.020408,339.85102 L523.469388,339.85102 C522.45551,339.85102 521.632653,339.028163 521.632653,338.014286 L521.632653,310.463265 C521.632653,309.449388 522.45551,308.626531 523.469388,308.626531 L551.020408,308.626531 C552.034286,308.626531 552.857143,309.449388 552.857143,310.463265 L552.857143,338.014286 C552.857143,339.028163 552.034286,339.85102 551.020408,339.85102" id="Path" fill="#6262CC"></path>
            <path d="M589.591837,416.993878 L562.040816,416.993878 C561.026939,416.993878 560.204082,416.17102 560.204082,415.157143 L560.204082,387.606122 C560.204082,386.592245 561.026939,385.769388 562.040816,385.769388 L589.591837,385.769388 C590.605714,385.769388 591.428571,386.592245 591.428571,387.606122 L591.428571,415.157143 C591.428571,416.17102 590.605714,416.993878 589.591837,416.993878" id="Path" fill="#272359"></path>
            <path d="M589.591837,378.422449 L562.040816,378.422449 C561.026939,378.422449 560.204082,377.599592 560.204082,376.585714 L560.204082,349.034694 C560.204082,348.020816 561.026939,347.197959 562.040816,347.197959 L589.591837,347.197959 C590.605714,347.197959 591.428571,348.020816 591.428571,349.034694 L591.428571,376.585714 C591.428571,377.599592 590.605714,378.422449 589.591837,378.422449" id="Path" fill="#3F3177"></path>
            <path d="M589.591837,455.565306 L562.040816,455.565306 C561.026939,455.565306 560.204082,454.742449 560.204082,453.728571 L560.204082,426.177551 C560.204082,425.163673 561.026939,424.340816 562.040816,424.340816 L589.591837,424.340816 C590.605714,424.340816 591.428571,425.163673 591.428571,426.177551 L591.428571,453.728571 C591.428571,454.742449 590.605714,455.565306 589.591837,455.565306" id="Path" fill="#6262CC"></path>
            <path d="M589.591837,339.85102 L562.040816,339.85102 C561.026939,339.85102 560.204082,339.028163 560.204082,338.014286 L560.204082,310.463265 C560.204082,309.449388 561.026939,308.626531 562.040816,308.626531 L589.591837,308.626531 C590.605714,308.626531 591.428571,309.449388 591.428571,310.463265 L591.428571,338.014286 C591.428571,339.028163 590.605714,339.85102 589.591837,339.85102" id="Path" fill="#9795F9"></path>
            <path d="M628.163265,416.993878 L600.612245,416.993878 C599.598367,416.993878 598.77551,416.17102 598.77551,415.157143 L598.77551,387.606122 C598.77551,386.592245 599.598367,385.769388 600.612245,385.769388 L628.163265,385.769388 C629.177143,385.769388 630,386.592245 630,387.606122 L630,415.157143 C630,416.17102 629.177143,416.993878 628.163265,416.993878" id="Path" fill="#272359"></path>
            <path d="M628.163265,378.422449 L600.612245,378.422449 C599.598367,378.422449 598.77551,377.599592 598.77551,376.585714 L598.77551,349.034694 C598.77551,348.020816 599.598367,347.197959 600.612245,347.197959 L628.163265,347.197959 C629.177143,347.197959 630,348.020816 630,349.034694 L630,376.585714 C630,377.599592 629.177143,378.422449 628.163265,378.422449" id="Path" fill="#6262CC"></path>
            <path d="M628.163265,455.565306 L600.612245,455.565306 C599.598367,455.565306 598.77551,454.742449 598.77551,453.728571 L598.77551,426.177551 C598.77551,425.163673 599.598367,424.340816 600.612245,424.340816 L628.163265,424.340816 C629.177143,424.340816 630,425.163673 630,426.177551 L630,453.728571 C630,454.742449 629.177143,455.565306 628.163265,455.565306" id="Path" fill="#9795F9"></path>
            <path d="M628.163265,339.85102 L600.612245,339.85102 C599.598367,339.85102 598.77551,339.028163 598.77551,338.014286 L598.77551,310.463265 C598.77551,309.449388 599.598367,308.626531 600.612245,308.626531 L628.163265,308.626531 C629.177143,308.626531 630,309.449388 630,310.463265 L630,338.014286 C630,339.028163 629.177143,339.85102 628.163265,339.85102" id="Path" fill="#3F3177"></path>
            <path d="M666.734694,416.993878 L639.183673,416.993878 C638.169796,416.993878 637.346939,416.17102 637.346939,415.157143 L637.346939,387.606122 C637.346939,386.592245 638.169796,385.769388 639.183673,385.769388 L666.734694,385.769388 C667.748571,385.769388 668.571429,386.592245 668.571429,387.606122 L668.571429,415.157143 C668.571429,416.17102 667.748571,416.993878 666.734694,416.993878" id="Path" fill="#3F3177"></path>
            <path d="M666.734694,378.422449 L639.183673,378.422449 C638.169796,378.422449 637.346939,377.599592 637.346939,376.585714 L637.346939,349.034694 C637.346939,348.020816 638.169796,347.197959 639.183673,347.197959 L666.734694,347.197959 C667.748571,347.197959 668.571429,348.020816 668.571429,349.034694 L668.571429,376.585714 C668.571429,377.599592 667.748571,378.422449 666.734694,378.422449" id="Path" fill="#9795F9"></path>
            <path d="M666.734694,455.565306 L639.183673,455.565306 C638.169796,455.565306 637.346939,454.742449 637.346939,453.728571 L637.346939,426.177551 C637.346939,425.163673 638.169796,424.340816 639.183673,424.340816 L666.734694,424.340816 C667.748571,424.340816 668.571429,425.163673 668.571429,426.177551 L668.571429,453.728571 C668.571429,454.742449 667.748571,455.565306 666.734694,455.565306" id="Path" fill="#3F3177"></path>
            <path d="M666.734694,339.85102 L639.183673,339.85102 C638.169796,339.85102 637.346939,339.028163 637.346939,338.014286 L637.346939,310.463265 C637.346939,309.449388 638.169796,308.626531 639.183673,308.626531 L666.734694,308.626531 C667.748571,308.626531 668.571429,309.449388 668.571429,310.463265 L668.571429,338.014286 C668.571429,339.028163 667.748571,339.85102 666.734694,339.85102" id="Path" fill="#6262CC"></path>
            <path d="M705.306122,416.993878 L677.755102,416.993878 C676.741224,416.993878 675.918367,416.17102 675.918367,415.157143 L675.918367,387.606122 C675.918367,386.592245 676.741224,385.769388 677.755102,385.769388 L705.306122,385.769388 C706.32,385.769388 707.142857,386.592245 707.142857,387.606122 L707.142857,415.157143 C707.142857,416.17102 706.32,416.993878 705.306122,416.993878" id="Path" fill="#3F3177"></path>
            <path d="M705.306122,378.422449 L677.755102,378.422449 C676.741224,378.422449 675.918367,377.599592 675.918367,376.585714 L675.918367,349.034694 C675.918367,348.020816 676.741224,347.197959 677.755102,347.197959 L705.306122,347.197959 C706.32,347.197959 707.142857,348.020816 707.142857,349.034694 L707.142857,376.585714 C707.142857,377.599592 706.32,378.422449 705.306122,378.422449" id="Path" fill="#272359"></path>
            <path d="M705.306122,455.565306 L677.755102,455.565306 C676.741224,455.565306 675.918367,454.742449 675.918367,453.728571 L675.918367,426.177551 C675.918367,425.163673 676.741224,424.340816 677.755102,424.340816 L705.306122,424.340816 C706.32,424.340816 707.142857,425.163673 707.142857,426.177551 L707.142857,453.728571 C707.142857,454.742449 706.32,455.565306 705.306122,455.565306" id="Path" fill="#272359"></path>
            <path d="M705.306122,339.85102 L677.755102,339.85102 C676.741224,339.85102 675.918367,339.028163 675.918367,338.014286 L675.918367,310.463265 C675.918367,309.449388 676.741224,308.626531 677.755102,308.626531 L705.306122,308.626531 C706.32,308.626531 707.142857,309.449388 707.142857,310.463265 L707.142857,338.014286 C707.142857,339.028163 706.32,339.85102 705.306122,339.85102" id="Path" fill="#E4E4E4"></path>
            <path d="M870.612245,347.197959 L898.163265,347.197959 C899.177143,347.197959 900,348.020816 900,349.034694 L900,376.585714 C900,377.599592 899.177143,378.422449 898.163265,378.422449 L870.612245,378.422449 C869.598367,378.422449 868.77551,377.599592 868.77551,376.585714 L868.77551,349.034694 C868.77551,348.020816 869.598367,347.197959 870.612245,347.197959" id="Path" fill="#9795F9"></path>
            <path d="M870.612245,385.769388 L898.163265,385.769388 C899.177143,385.769388 900,386.592245 900,387.606122 L900,415.157143 C900,416.17102 899.177143,416.993878 898.163265,416.993878 L870.612245,416.993878 C869.598367,416.993878 868.77551,416.17102 868.77551,415.157143 L868.77551,387.606122 C868.77551,386.592245 869.598367,385.769388 870.612245,385.769388" id="Path" fill="#272359"></path>
            <path d="M870.612245,308.626531 L898.163265,308.626531 C899.177143,308.626531 900,309.449388 900,310.463265 L900,338.014286 C900,339.028163 899.177143,339.85102 898.163265,339.85102 L870.612245,339.85102 C869.598367,339.85102 868.77551,339.028163 868.77551,338.014286 L868.77551,310.463265 C868.77551,309.449388 869.598367,308.626531 870.612245,308.626531" id="Path" fill="#E4E4E4"></path>
            <path d="M870.612245,424.340816 L898.163265,424.340816 C899.177143,424.340816 900,425.163673 900,426.177551 L900,453.728571 C900,454.742449 899.177143,455.565306 898.163265,455.565306 L870.612245,455.565306 C869.598367,455.565306 868.77551,454.742449 868.77551,453.728571 L868.77551,426.177551 C868.77551,425.163673 869.598367,424.340816 870.612245,424.340816" id="Path" fill="#6262CC"></path>
            <path d="M832.040816,347.197959 L859.591837,347.197959 C860.605714,347.197959 861.428571,348.020816 861.428571,349.034694 L861.428571,376.585714 C861.428571,377.599592 860.605714,378.422449 859.591837,378.422449 L832.040816,378.422449 C831.026939,378.422449 830.204082,377.599592 830.204082,376.585714 L830.204082,349.034694 C830.204082,348.020816 831.026939,347.197959 832.040816,347.197959" id="Path" fill="#272359"></path>
            <path d="M832.040816,385.769388 L859.591837,385.769388 C860.605714,385.769388 861.428571,386.592245 861.428571,387.606122 L861.428571,415.157143 C861.428571,416.17102 860.605714,416.993878 859.591837,416.993878 L832.040816,416.993878 C831.026939,416.993878 830.204082,416.17102 830.204082,415.157143 L830.204082,387.606122 C830.204082,386.592245 831.026939,385.769388 832.040816,385.769388" id="Path" fill="#3F3177"></path>
            <path d="M832.040816,308.626531 L859.591837,308.626531 C860.605714,308.626531 861.428571,309.449388 861.428571,310.463265 L861.428571,338.014286 C861.428571,339.028163 860.605714,339.85102 859.591837,339.85102 L832.040816,339.85102 C831.026939,339.85102 830.204082,339.028163 830.204082,338.014286 L830.204082,310.463265 C830.204082,309.449388 831.026939,308.626531 832.040816,308.626531" id="Path" fill="#6262CC"></path>
            <path d="M832.040816,424.340816 L859.591837,424.340816 C860.605714,424.340816 861.428571,425.163673 861.428571,426.177551 L861.428571,453.728571 C861.428571,454.742449 860.605714,455.565306 859.591837,455.565306 L832.040816,455.565306 C831.026939,455.565306 830.204082,454.742449 830.204082,453.728571 L830.204082,426.177551 C830.204082,425.163673 831.026939,424.340816 832.040816,424.340816" id="Path" fill="#9795F9"></path>
            <path d="M793.469388,347.197959 L821.020408,347.197959 C822.034286,347.197959 822.857143,348.020816 822.857143,349.034694 L822.857143,376.585714 C822.857143,377.599592 822.034286,378.422449 821.020408,378.422449 L793.469388,378.422449 C792.45551,378.422449 791.632653,377.599592 791.632653,376.585714 L791.632653,349.034694 C791.632653,348.020816 792.45551,347.197959 793.469388,347.197959" id="Path" fill="#272359"></path>
            <path d="M793.469388,385.769388 L821.020408,385.769388 C822.034286,385.769388 822.857143,386.592245 822.857143,387.606122 L822.857143,415.157143 C822.857143,416.17102 822.034286,416.993878 821.020408,416.993878 L793.469388,416.993878 C792.45551,416.993878 791.632653,416.17102 791.632653,415.157143 L791.632653,387.606122 C791.632653,386.592245 792.45551,385.769388 793.469388,385.769388" id="Path" fill="#6262CC"></path>
            <path d="M793.469388,308.626531 L821.020408,308.626531 C822.034286,308.626531 822.857143,309.449388 822.857143,310.463265 L822.857143,338.014286 C822.857143,339.028163 822.034286,339.85102 821.020408,339.85102 L793.469388,339.85102 C792.45551,339.85102 791.632653,339.028163 791.632653,338.014286 L791.632653,310.463265 C791.632653,309.449388 792.45551,308.626531 793.469388,308.626531" id="Path" fill="#9795F9"></path>
            <path d="M793.469388,424.340816 L821.020408,424.340816 C822.034286,424.340816 822.857143,425.163673 822.857143,426.177551 L822.857143,453.728571 C822.857143,454.742449 822.034286,455.565306 821.020408,455.565306 L793.469388,455.565306 C792.45551,455.565306 791.632653,454.742449 791.632653,453.728571 L791.632653,426.177551 C791.632653,425.163673 792.45551,424.340816 793.469388,424.340816" id="Path" fill="#3F3177"></path>
            <path d="M754.897959,347.197959 L782.44898,347.197959 C783.462857,347.197959 784.285714,348.020816 784.285714,349.034694 L784.285714,376.585714 C784.285714,377.599592 783.462857,378.422449 782.44898,378.422449 L754.897959,378.422449 C753.884082,378.422449 753.061224,377.599592 753.061224,376.585714 L753.061224,349.034694 C753.061224,348.020816 753.884082,347.197959 754.897959,347.197959" id="Path" fill="#3F3177"></path>
            <path d="M754.897959,385.769388 L782.44898,385.769388 C783.462857,385.769388 784.285714,386.592245 784.285714,387.606122 L784.285714,415.157143 C784.285714,416.17102 783.462857,416.993878 782.44898,416.993878 L754.897959,416.993878 C753.884082,416.993878 753.061224,416.17102 753.061224,415.157143 L753.061224,387.606122 C753.061224,386.592245 753.884082,385.769388 754.897959,385.769388" id="Path" fill="#9795F9"></path>
            <path d="M754.897959,308.626531 L782.44898,308.626531 C783.462857,308.626531 784.285714,309.449388 784.285714,310.463265 L784.285714,338.014286 C784.285714,339.028163 783.462857,339.85102 782.44898,339.85102 L754.897959,339.85102 C753.884082,339.85102 753.061224,339.028163 753.061224,338.014286 L753.061224,310.463265 C753.061224,309.449388 753.884082,308.626531 754.897959,308.626531" id="Path" fill="#3F3177"></path>
            <path d="M754.897959,424.340816 L782.44898,424.340816 C783.462857,424.340816 784.285714,425.163673 784.285714,426.177551 L784.285714,453.728571 C784.285714,454.742449 783.462857,455.565306 782.44898,455.565306 L754.897959,455.565306 C753.884082,455.565306 753.061224,454.742449 753.061224,453.728571 L753.061224,426.177551 C753.061224,425.163673 753.884082,424.340816 754.897959,424.340816" id="Path" fill="#6262CC"></path>
            <path d="M716.326531,347.197959 L743.877551,347.197959 C744.891429,347.197959 745.714286,348.020816 745.714286,349.034694 L745.714286,376.585714 C745.714286,377.599592 744.891429,378.422449 743.877551,378.422449 L716.326531,378.422449 C715.312653,378.422449 714.489796,377.599592 714.489796,376.585714 L714.489796,349.034694 C714.489796,348.020816 715.312653,347.197959 716.326531,347.197959" id="Path" fill="#3F3177"></path>
            <path d="M716.326531,385.769388 L743.877551,385.769388 C744.891429,385.769388 745.714286,386.592245 745.714286,387.606122 L745.714286,415.157143 C745.714286,416.17102 744.891429,416.993878 743.877551,416.993878 L716.326531,416.993878 C715.312653,416.993878 714.489796,416.17102 714.489796,415.157143 L714.489796,387.606122 C714.489796,386.592245 715.312653,385.769388 716.326531,385.769388" id="Path" fill="#272359"></path>
            <path d="M716.326531,308.626531 L743.877551,308.626531 C744.891429,308.626531 745.714286,309.449388 745.714286,310.463265 L745.714286,338.014286 C745.714286,339.028163 744.891429,339.85102 743.877551,339.85102 L716.326531,339.85102 C715.312653,339.85102 714.489796,339.028163 714.489796,338.014286 L714.489796,310.463265 C714.489796,309.449388 715.312653,308.626531 716.326531,308.626531" id="Path" fill="#272359"></path>
            <path d="M716.326531,424.340816 L743.877551,424.340816 C744.891429,424.340816 745.714286,425.163673 745.714286,426.177551 L745.714286,453.728571 C745.714286,454.742449 744.891429,455.565306 743.877551,455.565306 L716.326531,455.565306 C715.312653,455.565306 714.489796,454.742449 714.489796,453.728571 L714.489796,426.177551 C714.489796,425.163673 715.312653,424.340816 716.326531,424.340816" id="Path" fill="#E4E4E4"></path>
            <path d="M743.877551,462.912245 L716.326531,462.912245 C715.312653,462.912245 714.489796,463.735102 714.489796,464.74898 L714.489796,492.3 C714.489796,493.313878 715.312653,494.136735 716.326531,494.136735 L743.877551,494.136735 C744.891429,494.136735 745.714286,493.313878 745.714286,492.3 L745.714286,464.74898 C745.714286,463.735102 744.891429,462.912245 743.877551,462.912245" id="Path" fill="#9795F9"></path>
            <path d="M782.44898,462.912245 L754.897959,462.912245 C753.884082,462.912245 753.061224,463.735102 753.061224,464.74898 L753.061224,492.3 C753.061224,493.313878 753.884082,494.136735 754.897959,494.136735 L782.44898,494.136735 C783.462857,494.136735 784.285714,493.313878 784.285714,492.3 L784.285714,464.74898 C784.285714,463.735102 783.462857,462.912245 782.44898,462.912245" id="Path" fill="#E4E4E4"></path>
            <path d="M821.020408,462.912245 L793.469388,462.912245 C792.45551,462.912245 791.632653,463.735102 791.632653,464.74898 L791.632653,492.3 C791.632653,493.313878 792.45551,494.136735 793.469388,494.136735 L821.020408,494.136735 C822.034286,494.136735 822.857143,493.313878 822.857143,492.3 L822.857143,464.74898 C822.857143,463.735102 822.034286,462.912245 821.020408,462.912245" id="Path" fill="#6262CC"></path>
            <path d="M859.591837,462.912245 L832.040816,462.912245 C831.026939,462.912245 830.204082,463.735102 830.204082,464.74898 L830.204082,492.3 C830.204082,493.313878 831.026939,494.136735 832.040816,494.136735 L859.591837,494.136735 C860.605714,494.136735 861.428571,493.313878 861.428571,492.3 L861.428571,464.74898 C861.428571,463.735102 860.605714,462.912245 859.591837,462.912245" id="Path" fill="#9795F9"></path>
            <path d="M898.163265,462.912245 L870.612245,462.912245 C869.598367,462.912245 868.77551,463.735102 868.77551,464.74898 L868.77551,492.3 C868.77551,493.313878 869.598367,494.136735 870.612245,494.136735 L898.163265,494.136735 C899.177143,494.136735 900,493.313878 900,492.3 L900,464.74898 C900,463.735102 899.177143,462.912245 898.163265,462.912245" id="Path" fill="#3F3177"></path>
            <path d="M677.755102,494.136735 L705.306122,494.136735 C706.32,494.136735 707.142857,493.313878 707.142857,492.3 L707.142857,464.74898 C707.142857,463.735102 706.32,462.912245 705.306122,462.912245 L677.755102,462.912245 C676.741224,462.912245 675.918367,463.735102 675.918367,464.74898 L675.918367,492.3 C675.918367,493.313878 676.741224,494.136735 677.755102,494.136735" id="Path" fill="#272359"></path>
            <path d="M639.183673,494.136735 L666.734694,494.136735 C667.748571,494.136735 668.571429,493.313878 668.571429,492.3 L668.571429,464.74898 C668.571429,463.735102 667.748571,462.912245 666.734694,462.912245 L639.183673,462.912245 C638.169796,462.912245 637.346939,463.735102 637.346939,464.74898 L637.346939,492.3 C637.346939,493.313878 638.169796,494.136735 639.183673,494.136735" id="Path" fill="#6262CC"></path>
            <path d="M600.612245,494.136735 L628.163265,494.136735 C629.177143,494.136735 630,493.313878 630,492.3 L630,464.74898 C630,463.735102 629.177143,462.912245 628.163265,462.912245 L600.612245,462.912245 C599.598367,462.912245 598.77551,463.735102 598.77551,464.74898 L598.77551,492.3 C598.77551,493.313878 599.598367,494.136735 600.612245,494.136735" id="Path" fill="#9795F9"></path>
            <path d="M562.040816,494.136735 L589.591837,494.136735 C590.605714,494.136735 591.428571,493.313878 591.428571,492.3 L591.428571,464.74898 C591.428571,463.735102 590.605714,462.912245 589.591837,462.912245 L562.040816,462.912245 C561.026939,462.912245 560.204082,463.735102 560.204082,464.74898 L560.204082,492.3 C560.204082,493.313878 561.026939,494.136735 562.040816,494.136735" id="Path" fill="#3F3177"></path>
            <path d="M523.469388,494.136735 L551.020408,494.136735 C552.034286,494.136735 552.857143,493.313878 552.857143,492.3 L552.857143,464.74898 C552.857143,463.735102 552.034286,462.912245 551.020408,462.912245 L523.469388,462.912245 C522.45551,462.912245 521.632653,463.735102 521.632653,464.74898 L521.632653,492.3 C521.632653,493.313878 522.45551,494.136735 523.469388,494.136735" id="Path" fill="#6262CC"></path>
            <path d="M484.897959,494.136735 L512.44898,494.136735 C513.462857,494.136735 514.285714,493.313878 514.285714,492.3 L514.285714,464.74898 C514.285714,463.735102 513.462857,462.912245 512.44898,462.912245 L484.897959,462.912245 C483.884082,462.912245 483.061224,463.735102 483.061224,464.74898 L483.061224,492.3 C483.061224,493.313878 483.884082,494.136735 484.897959,494.136735" id="Path" fill="#E4E4E4"></path>
            <path d="M281.020408,462.912245 L253.469388,462.912245 C252.45551,462.912245 251.632653,463.735102 251.632653,464.74898 L251.632653,492.3 C251.632653,493.313878 252.45551,494.136735 253.469388,494.136735 L281.020408,494.136735 C282.034286,494.136735 282.857143,493.313878 282.857143,492.3 L282.857143,464.74898 C282.857143,463.735102 282.034286,462.912245 281.020408,462.912245" id="Path" fill="#9795F9"></path>
            <path d="M319.591837,462.912245 L292.040816,462.912245 C291.026939,462.912245 290.204082,463.735102 290.204082,464.74898 L290.204082,492.3 C290.204082,493.313878 291.026939,494.136735 292.040816,494.136735 L319.591837,494.136735 C320.605714,494.136735 321.428571,493.313878 321.428571,492.3 L321.428571,464.74898 C321.428571,463.735102 320.605714,462.912245 319.591837,462.912245" id="Path" fill="#E4E4E4"></path>
            <path d="M358.163265,462.912245 L330.612245,462.912245 C329.598367,462.912245 328.77551,463.735102 328.77551,464.74898 L328.77551,492.3 C328.77551,493.313878 329.598367,494.136735 330.612245,494.136735 L358.163265,494.136735 C359.177143,494.136735 360,493.313878 360,492.3 L360,464.74898 C360,463.735102 359.177143,462.912245 358.163265,462.912245" id="Path" fill="#6262CC"></path>
            <path d="M396.734694,462.912245 L369.183673,462.912245 C368.169796,462.912245 367.346939,463.735102 367.346939,464.74898 L367.346939,492.3 C367.346939,493.313878 368.169796,494.136735 369.183673,494.136735 L396.734694,494.136735 C397.748571,494.136735 398.571429,493.313878 398.571429,492.3 L398.571429,464.74898 C398.571429,463.735102 397.748571,462.912245 396.734694,462.912245" id="Path" fill="#9795F9"></path>
            <path d="M435.306122,462.912245 L407.755102,462.912245 C406.741224,462.912245 405.918367,463.735102 405.918367,464.74898 L405.918367,492.3 C405.918367,493.313878 406.741224,494.136735 407.755102,494.136735 L435.306122,494.136735 C436.32,494.136735 437.142857,493.313878 437.142857,492.3 L437.142857,464.74898 C437.142857,463.735102 436.32,462.912245 435.306122,462.912245" id="Path" fill="#3F3177"></path>
            <path d="M473.877551,462.912245 L446.326531,462.912245 C445.312653,462.912245 444.489796,463.735102 444.489796,464.74898 L444.489796,492.3 C444.489796,493.313878 445.312653,494.136735 446.326531,494.136735 L473.877551,494.136735 C474.891429,494.136735 475.714286,493.313878 475.714286,492.3 L475.714286,464.74898 C475.714286,463.735102 474.891429,462.912245 473.877551,462.912245" id="Path" fill="#272359"></path>
            <path d="M214.897959,494.136735 L242.44898,494.136735 C243.462857,494.136735 244.285714,493.313878 244.285714,492.3 L244.285714,464.74898 C244.285714,463.735102 243.462857,462.912245 242.44898,462.912245 L214.897959,462.912245 C213.884082,462.912245 213.061224,463.735102 213.061224,464.74898 L213.061224,492.3 C213.061224,493.313878 213.884082,494.136735 214.897959,494.136735" id="Path" fill="#272359"></path>
            <g id="Group" transform="translate(508.775510, 62.448980)">
                <polygon id="Path" fill="#999999" transform="translate(214.213753, 216.102751) rotate(-45.000000) translate(-214.213753, -216.102751) " points="200.438375 197.73558 227.989132 197.73558 227.989132 234.469921 200.438375 234.469921"></polygon>
                <polygon id="Path" fill="#808080" transform="translate(209.682850, 220.620811) rotate(-47.313927) translate(-209.682850, -220.620811) " points="202.335706 202.25295 217.029995 202.25295 217.029995 238.988673 202.335706 238.988673"></polygon>
                <circle id="Oval" fill="#139B8B" opacity="0.8" cx="120.710204" cy="121.279592" r="111.122449"></circle>
                <path d="M358.383673,360.257143 C349.416735,369.224082 334.880816,369.224082 325.913878,360.257143 L210.97102,245.314286 C206.667551,241.010816 206.667551,234.033061 210.97102,229.729592 L227.854286,212.846327 C232.157755,208.542857 239.13551,208.542857 243.43898,212.846327 L358.381837,327.789184 C367.350612,336.754286 367.350612,351.292041 358.383673,360.257143" id="Path" fill="#3DB7E2"></path>
                <path d="M210.361224,230.418367 C206.693265,234.747551 206.893469,241.236735 210.978367,245.321633 L325.921224,360.26449 C331.519592,365.862857 339.287143,367.964082 346.516531,366.573673 L210.359388,230.416531" id="Path" fill="#1890C6"></path>
                <path d="M120.710204,10.1626531 C150.391837,10.1626531 178.297347,21.7212245 199.285714,42.7095918 C220.274082,63.6979592 231.832653,91.6034694 231.832653,121.285102 C231.832653,150.966735 220.274082,178.872245 199.285714,199.860612 C178.297347,220.84898 150.391837,232.407551 120.710204,232.407551 C91.0285714,232.407551 63.1230612,220.84898 42.1346939,199.860612 C-1.19204082,156.535714 -1.19204082,86.0363265 42.1346939,42.7095918 C63.1230612,21.7212245 91.0285714,10.1626531 120.710204,10.1626531 L120.710204,10.1626531 Z M120.710204,0.978979592 C89.9210204,0.978979592 59.1318367,12.724898 35.6510204,36.2259184 C-11.3308163,83.2095918 -11.3308163,159.37898 35.6510204,206.362653 C59.1428571,229.85449 89.9302041,241.609592 120.710204,241.609592 C151.490204,241.609592 182.288571,229.863673 205.769388,206.362653 C252.753061,159.380816 252.753061,83.2095918 205.769388,36.2259184 C182.279388,12.7340816 151.490204,0.997346939 120.710204,0.997346939 L120.710204,0.978979592 Z" id="Shape" fill="#999999"></path>
                <path d="M120.710204,232.402041 C91.0285714,232.402041 63.1230612,220.843469 42.1346939,199.855102 C21.1463265,178.866735 9.5877551,150.961224 9.5877551,121.279592 C9.5877551,91.5979592 21.1463265,63.692449 42.1346939,42.7040816 L35.64,36.2093878 C-11.3418367,83.1912245 -11.3418367,159.362449 35.64,206.346122 C36.3746939,207.080816 37.114898,207.802653 37.8642857,208.513469 C60.3091837,229.84898 88.9659184,240.860204 117.824694,241.547143 C118.787143,241.569184 119.749592,241.582041 120.710204,241.582041 C136.103878,241.582041 151.499388,238.645102 165.982041,232.773061 C168.696735,231.67102 171.380204,230.467959 174.026939,229.160204 C175.790204,228.287755 177.536939,227.371224 179.265306,226.406939 C188.768571,221.107959 197.706122,214.420408 205.780408,206.346122 L199.285714,199.851429 C178.297347,220.841633 150.391837,232.400204 120.710204,232.400204" id="Path" fill="#808080"></path>
                <path d="M93.5632653,182.038776 C90.3746939,182.038776 87.39,180.378367 85.7167347,177.623265 L63.3397959,140.778367 L41.3614286,140.778367 C36.2883673,140.778367 32.1777551,136.667755 32.1777551,131.594694 C32.1777551,126.521633 36.2883673,122.41102 41.3614286,122.41102 L68.5065306,122.41102 C71.7153061,122.41102 74.6908163,124.084286 76.354898,126.826531 L91.917551,152.44898 L126.811837,66.2565306 C128.25551,62.695102 131.76,60.4395918 135.596939,60.5222449 C139.435714,60.6361224 142.798776,63.1267347 144.025714,66.7653061 L162.79898,122.418367 L200.055306,122.418367 C205.128367,122.418367 209.23898,126.52898 209.23898,131.602041 C209.23898,136.675102 205.128367,140.785714 200.055306,140.785714 L156.205102,140.785714 C152.263469,140.785714 148.762653,138.271224 147.50449,134.53898 L134.537143,96.1181633 L102.072857,176.308163 C100.768776,179.527959 97.7602041,181.737551 94.2997959,182.014898 C94.0536735,182.038776 93.8057143,182.047959 93.5595918,182.047959" id="Path" fill="#E4E4E4"></path>
            </g>
            <g id="Group" transform="translate(0.000000, 38.571429)">
                <polygon id="Path" fill="url(#linearGradient-visibility-1)" points="0 0.0551020408 229.591837 0.0551020408 229.591837 31.2795918 0 31.2795918"></polygon>
                <path d="M225.918367,29.4428571 L225.918367,1.89183673 C225.918367,0.877959184 226.741224,0.0551020408 227.755102,0.0551020408 L255.306122,0.0551020408 C256.32,0.0551020408 257.142857,0.877959184 257.142857,1.89183673 L257.142857,29.4428571 C257.142857,30.4567347 256.32,31.2795918 255.306122,31.2795918 L227.755102,31.2795918 C226.741224,31.2795918 225.918367,30.4585714 225.918367,29.4428571" id="Path" fill="#272359"></path>
            </g>
            <g id="Group" transform="translate(0.000000, 231.428571)">
                <polygon id="Path" fill="url(#linearGradient-visibility-2)" points="0 0.0551020408 156.122449 0.0551020408 156.122449 31.2979592 0 31.2979592"></polygon>
                <path d="M152.399388,29.4612245 L152.399388,1.91020408 C152.399388,0.896326531 153.222245,0.0734693878 154.236122,0.0734693878 L181.787143,0.0734693878 C182.80102,0.0734693878 183.623878,0.896326531 183.623878,1.91020408 L183.623878,29.4612245 C183.623878,30.475102 182.80102,31.2979592 181.787143,31.2979592 L154.236122,31.2979592 C153.222245,31.2979592 152.399388,30.4769388 152.399388,29.4612245" id="Path" fill="#272359"></path>
            </g>
            <g id="Group" transform="translate(220.408163, 154.285714)">
                <polygon id="Path" fill="url(#linearGradient-visibility-3)" points="0 0.0551020408 128.571429 0.0551020408 128.571429 31.2795918 0 31.2795918"></polygon>
                <path d="M156.122449,1.89183673 L156.122449,29.4428571 C156.122449,30.4567347 155.299592,31.2795918 154.285714,31.2795918 L126.734694,31.2795918 C125.720816,31.2795918 124.897959,30.4567347 124.897959,29.4428571 L124.897959,1.89183673 C124.897959,0.877959184 125.720816,0.0551020408 126.734694,0.0551020408 L154.285714,0.0551020408 C155.299592,0.0551020408 156.122449,0.877959184 156.122449,1.89183673" id="Path" fill="#3F3177"></path>
            </g>
            <g id="Group" transform="translate(45.918367, 385.714286)">
                <polygon id="Path" fill="url(#linearGradient-visibility-4)" points="0.918367347 0.0551020408 157.040816 0.0551020408 157.040816 31.2795918 0.918367347 31.2795918"></polygon>
                <path d="M184.591837,1.89183673 L184.591837,29.4428571 C184.591837,30.4567347 183.76898,31.2795918 182.755102,31.2795918 L155.204082,31.2795918 C154.190204,31.2795918 153.367347,30.4567347 153.367347,29.4428571 L153.367347,1.89183673 C153.367347,0.877959184 154.190204,0.0551020408 155.204082,0.0551020408 L182.755102,0.0551020408 C183.76898,0.0551020408 184.591837,0.877959184 184.591837,1.89183673" id="Path" fill="#6262CC"></path>
            </g>
            <g id="Group" transform="translate(0.000000, 308.571429)">
                <polygon id="Path" fill="url(#linearGradient-visibility-5)" points="0 0 97.3469388 0 97.3469388 31.3346939 0 31.3346939"></polygon>
                <path d="M124.716122,1.89183673 L124.716122,29.4428571 C124.716122,30.4567347 123.893265,31.2795918 122.879388,31.2795918 L95.3283673,31.2795918 C94.3144898,31.2795918 93.4916327,30.4567347 93.4916327,29.4428571 L93.4916327,1.89183673 C93.4916327,0.877959184 94.3144898,0.0551020408 95.3283673,0.0551020408 L122.879388,0.0551020408 C123.893265,0.0551020408 124.716122,0.877959184 124.716122,1.89183673" id="Path" fill="#9795F9"></path>
            </g>
            <g id="Group" transform="translate(211.224490, 0.000000)">
                <polygon id="Path" fill="url(#linearGradient-visibility-6)" points="1.8 0 203.840816 0 203.840816 31.4632653 1.8 31.4632653"></polygon>
                <path d="M230.840816,1.95244898 L230.840816,29.5034694 C230.840816,30.5173469 230.017959,31.3402041 229.004082,31.3402041 L201.453061,31.3402041 C200.439184,31.3402041 199.616327,30.5173469 199.616327,29.5034694 L199.616327,1.95244898 C199.616327,0.938571429 200.439184,0.115714286 201.453061,0.115714286 L229.004082,0.115714286 C230.017959,0.115714286 230.840816,0.936734694 230.840816,1.95244898" id="Path" fill="#9795F9"></path>
            </g>
        </g>
    </g>
</svg>
